{
	BitmapFont: {
		osifont: {
			file: fonts/osifont.fnt
			scaledSize: 20
		}

		osifontMini: {
			file: fonts/osifont.fnt
			scaledSize: 10
		}

		osifontMedium: {
			file: fonts/osifont.fnt
			scaledSize: 16
		}

		osifontSmall: {
			file: fonts/osifont.fnt
			scaledSize: 12
		}

		osifontHuge: {
			file: fonts/osifont.fnt
			scaledSize: 30
		}
	}
}